[
    {
        "title": "my work",
        "body": "body 1"
    },
    {
        "title": "do node task",
        "body": "complete all task related to nodejs"
    },
    {
        "title": "express",
        "body": "use express in project demo"
    }
]